{
    "april2021": [
        {
            "What is your Employee Id": "10516",
            "What is your Name": "Shivam Kumar",
            "Is this your first review": "TRUE",
            "What was the personal Goal that you had set in the last quarter": "",
            "To what extent did you meet the individual goals set in the last Employee Performance Review?": "",
            "What was the Project Specific Goal that you had set in the last quarter": "",
            "To what extent did you meet the Project-specific goals set in the last Employee Performance Review?": "",
            "What was the Organizational Goal that you had set in the last quarter": "",
            "To what extent did you meet the Organizational goals set in the last Employee Performance Review?": "",
            "What is the Aspirational Goal that you want to achieve this quarter": "Want to explore more of scrum master role as i have done CSM",
            "What is the first step for this goal": "Did CSM certification from Scrum Alliance",
            "What is the second step for this goal": "Reading Books and attended trainings on scrum",
            "What is the third step for this goal": "To get more hands on experience on CSM",
            "What is the Commitment Goal that you want to achieve this quarter": "To get more in to scrum master role",
            "Do you have any final comments you would like to raise?": "To get a chance to explore more on scrum master role",
            "Submitted At": "3/31/2021 7:14:10",
            "Token": "cxssbqmhud006a2b6cxs5ml75514d4el"
        },
        {
            "What is your Employee Id": "10262",
            "What is your Name": "Sayali Toraskar",
            "Is this your first review": "FALSE",
            "What was the personal Goal that you had set in the last quarter": "AWS Certified Associate",
            "To what extent did you meet the individual goals set in the last Employee Performance Review?": "3",
            "What was the Project Specific Goal that you had set in the last quarter": "Automation",
            "To what extent did you meet the Project-specific goals set in the last Employee Performance Review?": "4",
            "What was the Organizational Goal that you had set in the last quarter": "GCP Certification",
            "To what extent did you meet the Organizational goals set in the last Employee Performance Review?": "4",
            "What is the Aspirational Goal that you want to achieve this quarter": "End to end Project Development at DevOps that includes setting up infra, CICD, Automation",
            "What is the first step for this goal": "To not to forget its a necessity",
            "What is the second step for this goal": "Reserve time for that specific goal",
            "What is the third step for this goal": "Book the exam",
            "What is the Commitment Goal that you want to achieve this quarter": "AWS Certification",
            "Do you have any final comments you would like to raise?": "NA",
            "Submitted At": "3/31/2021 8:05:58",
            "Token": "hugyjs3rdrx1mwteehugyjs842sgfefo"
        },
        {
            "What is your Employee Id": "10498",
            "What is your Name": "Shivangi",
            "Is this your first review": "TRUE",
            "What was the personal Goal that you had set in the last quarter": "",
            "To what extent did you meet the individual goals set in the last Employee Performance Review?": "",
            "What was the Project Specific Goal that you had set in the last quarter": "",
            "To what extent did you meet the Project-specific goals set in the last Employee Performance Review?": "",
            "What was the Organizational Goal that you had set in the last quarter": "",
            "To what extent did you meet the Organizational goals set in the last Employee Performance Review?": "",
            "What is the Aspirational Goal that you want to achieve this quarter": "Enhance more UX or UCD activities or process in remote working situation",
            "What is the first step for this goal": "Bring activities or sessions aliging to the stakeholders domain with a intersection to design",
            "What is the second step for this goal": "Involve them in the team and talk in terms of metrics and ROI",
            "What is the third step for this goal": "Review and study the impact levels to understand the benefits",
            "What is the Commitment Goal that you want to achieve this quarter": "To make design inclusive to all stakeholders and grow the design culture of org",
            "Do you have any final comments you would like to raise?": "To have a hybrid work-style",
            "Submitted At": "3/31/2021 8:01:53",
            "Token": "t40yweytw2frl9clgcdt40ywey0siplk"
        },
        {
            "What is your Employee Id": "5179",
            "What is your Name": "Sachin Verma",
            "Is this your first review": "TRUE",
            "What was the personal Goal that you had set in the last quarter": "",
            "To what extent did you meet the individual goals set in the last Employee Performance Review?": "",
            "What was the Project Specific Goal that you had set in the last quarter": "",
            "To what extent did you meet the Project-specific goals set in the last Employee Performance Review?": "",
            "What was the Organizational Goal that you had set in the last quarter": "",
            "To what extent did you meet the Organizational goals set in the last Employee Performance Review?": "",
            "What is the Aspirational Goal that you want to achieve this quarter": "To learn all the given technologies/software",
            "What is the first step for this goal": "learn from scratch",
            "What is the second step for this goal": "clearing all the doubts and start improving skills",
            "What is the third step for this goal": "learn advance and doing hardwork",
            "What is the Commitment Goal that you want to achieve this quarter": "completing the given program",
            "Do you have any final comments you would like to raise?": "NA",
            "Submitted At": "3/31/2021 8:02:31",
            "Token": "69mp7m78cqzc0ltmd7xq69mp7o5kytya"
        }
    ]
}